simulation/questa/tb_counter.vcd
$date
	Wed Oct 23 18:58:38 2024
$end
$version
	Questa Intel Starter FPGA Edition Version 2023.3
$end
$timescale
	1ps
$end

$scope module tb_counter $end
$var reg 1 ! sys_clk $end
$var reg 1 " sys_rst_n $end
$var wire 1 # led_out $end

$scope module uut $end
$var parameter 25 $ CNT_MAX $end
$var wire 1 % sys_clk $end
$var wire 1 & sys_rst_n $end
$var reg 1 ' led_out $end
$var reg 25 ( cnt [24:0] $end
$upscope $end
$upscope $end
$enddefinitions $end
#0
$dumpvars
0!
0"
0'
b0 (
b1011111010111100000111111 $
0#
0&
0%
$end
#10
1!
1%
#20
0!
0%
#30
1!
1%
#40
0!
0%
#50
1!
1%
#60
0!
0%
#70
1!
1%
#80
0!
0%
#90
1!
1%
#100
1"
0!
1&
0%
#110
1!
1%
b1 (
#120
0!
0%
#130
1!
1%
b10 (
#140
0!
0%
#150
1!
1%
b11 (
#160
0!
0%
#170
1!
1%
b100 (
#180
0!
0%
#190
1!
1%
b101 (
#200
0!
0%
#210
1!
1%
b110 (
#220
0!
0%
#230
1!
1%
b111 (
#240
0!
0%
#250
1!
1%
b1000 (
#260
0!
0%
#270
1!
1%
b1001 (
#280
0!
0%
#290
1!
1%
b1010 (
#300
0!
0%
#310
1!
1%
b1011 (
#320
0!
0%
#330
1!
1%
b1100 (
#340
0!
0%
#350
1!
1%
b1101 (
#360
0!
0%
#370
1!
1%
b1110 (
#380
0!
0%
#390
1!
1%
b1111 (
#400
0!
0%
#410
1!
1%
b10000 (
#420
0!
0%
#430
1!
1%
b10001 (
#440
0!
0%
#450
1!
1%
b10010 (
#460
0!
0%
#470
1!
1%
b10011 (
#480
0!
0%
#490
1!
1%
b10100 (
#500
0!
0%
#510
1!
1%
b10101 (
#520
0!
0%
#530
1!
1%
b10110 (
#540
0!
0%
#550
1!
1%
b10111 (
#560
0!
0%
#570
1!
1%
b11000 (
#580
0!
0%
#590
1!
1%
b11001 (
#600
0!
0%
#610
1!
1%
b11010 (
#620
0!
0%
#630
1!
1%
b11011 (
#640
0!
0%
#650
1!
1%
b11100 (
#660
0!
0%
#670
1!
1%
b11101 (
#680
0!
0%
#690
1!
1%
b11110 (
#700
0!
0%
#710
1!
1%
b11111 (
#720
0!
0%
#730
1!
1%
b100000 (
#740
0!
0%
#750
1!
1%
b100001 (
#760
0!
0%
#770
1!
1%
b100010 (
#780
0!
0%
#790
1!
1%
b100011 (
#800
0!
0%
#810
1!
1%
b100100 (
#820
0!
0%
#830
1!
1%
b100101 (
#840
0!
0%
#850
1!
1%
b100110 (
#860
0!
0%
#870
1!
1%
b100111 (
#880
0!
0%
#890
1!
1%
b101000 (
#900
0!
0%
#910
1!
1%
b101001 (
#920
0!
0%
#930
1!
1%
b101010 (
#940
0!
0%
#950
1!
1%
b101011 (
#960
0!
0%
#970
1!
1%
b101100 (
#980
0!
0%
#990
1!
1%
b101101 (
#1000
0!
0%
#1010
1!
1%
b101110 (
#1020
0!
0%
#1030
1!
1%
b101111 (
#1040
0!
0%
#1050
1!
1%
b110000 (
#1060
0!
0%
#1070
1!
1%
b110001 (
#1080
0!
0%
#1090
1!
1%
b110010 (
#1100
0!
0%
#1110
1!
1%
b110011 (
#1120
0!
0%
#1130
1!
1%
b110100 (
#1140
0!
0%
#1150
1!
1%
b110101 (
#1160
0!
0%
#1170
1!
1%
b110110 (
#1180
0!
0%
#1190
1!
1%
b110111 (
#1200
0!
0%
#1210
1!
1%
b111000 (
#1220
0!
0%
#1230
1!
1%
b111001 (
#1240
0!
0%
#1250
1!
1%
b111010 (
#1260
0!
0%
#1270
1!
1%
b111011 (
#1280
0!
0%
#1290
1!
1%
b111100 (
#1300
0!
0%
#1310
1!
1%
b111101 (
#1320
0!
0%
#1330
1!
1%
b111110 (
#1340
0!
0%
#1350
1!
1%
b111111 (
#1360
0!
0%
#1370
1!
1%
b1000000 (
#1380
0!
0%
#1390
1!
1%
b1000001 (
#1400
0!
0%
#1410
1!
1%
b1000010 (
#1420
0!
0%
#1430
1!
1%
b1000011 (
#1440
0!
0%
#1450
1!
1%
b1000100 (
#1460
0!
0%
#1470
1!
1%
b1000101 (
#1480
0!
0%
#1490
1!
1%
b1000110 (
#1500
0!
0%
#1510
1!
1%
b1000111 (
#1520
0!
0%
#1530
1!
1%
b1001000 (
#1540
0!
0%
#1550
1!
1%
b1001001 (
#1560
0!
0%
#1570
1!
1%
b1001010 (
#1580
0!
0%
#1590
1!
1%
b1001011 (
#1600
0!
0%
#1610
1!
1%
b1001100 (
#1620
0!
0%
#1630
1!
1%
b1001101 (
#1640
0!
0%
#1650
1!
1%
b1001110 (
#1660
0!
0%
#1670
1!
1%
b1001111 (
#1680
0!
0%
#1690
1!
1%
b1010000 (
#1700
0!
0%
#1710
1!
1%
b1010001 (
#1720
0!
0%
#1730
1!
1%
b1010010 (
#1740
0!
0%
#1750
1!
1%
b1010011 (
#1760
0!
0%
#1770
1!
1%
b1010100 (
#1780
0!
0%
#1790
1!
1%
b1010101 (
#1800
0!
0%
#1810
1!
1%
b1010110 (
#1820
0!
0%
#1830
1!
1%
b1010111 (
#1840
0!
0%
#1850
1!
1%
b1011000 (
#1860
0!
0%
#1870
1!
1%
b1011001 (
#1880
0!
0%
#1890
1!
1%
b1011010 (
#1900
0!
0%
#1910
1!
1%
b1011011 (
#1920
0!
0%
#1930
1!
1%
b1011100 (
#1940
0!
0%
#1950
1!
1%
b1011101 (
#1960
0!
0%
#1970
1!
1%
b1011110 (
#1980
0!
0%
#1990
1!
1%
b1011111 (
#2000
0!
0%
#2010
1!
1%
b1100000 (
#2020
0!
0%
#2030
1!
1%
b1100001 (
#2040
0!
0%
#2050
1!
1%
b1100010 (
#2060
0!
0%
#2070
1!
1%
b1100011 (
#2080
0!
0%
#2090
1!
1%
b1100100 (
#2100
0!
0%
#2110
1!
1%
b1100101 (
#2120
0!
0%
#2130
1!
1%
b1100110 (
#2140
0!
0%
#2150
1!
1%
b1100111 (
#2160
0!
0%
#2170
1!
1%
b1101000 (
#2180
0!
0%
#2190
1!
1%
b1101001 (
#2200
0!
0%
#2210
1!
1%
b1101010 (
#2220
0!
0%
#2230
1!
1%
b1101011 (
#2240
0!
0%
#2250
1!
1%
b1101100 (
#2260
0!
0%
#2270
1!
1%
b1101101 (
#2280
0!
0%
#2290
1!
1%
b1101110 (
#2300
0!
0%
#2310
1!
1%
b1101111 (
#2320
0!
0%
#2330
1!
1%
b1110000 (
#2340
0!
0%
#2350
1!
1%
b1110001 (
#2360
0!
0%
#2370
1!
1%
b1110010 (
#2380
0!
0%
#2390
1!
1%
b1110011 (
#2400
0!
0%
#2410
1!
1%
b1110100 (
#2420
0!
0%
#2430
1!
1%
b1110101 (
#2440
0!
0%
#2450
1!
1%
b1110110 (
#2460
0!
0%
#2470
1!
1%
b1110111 (
#2480
0!
0%
#2490
1!
1%
b1111000 (
#2500
0!
0%
#2510
1!
1%
b1111001 (
#2520
0!
0%
#2530
1!
1%
b1111010 (
#2540
0!
0%
#2550
1!
1%
b1111011 (
#2560
0!
0%
#2570
1!
1%
b1111100 (
#2580
0!
0%
#2590
1!
1%
b1111101 (
#2600
0!
0%
#2610
1!
1%
b1111110 (
#2620
0!
0%
#2630
1!
1%
b1111111 (
#2640
0!
0%
#2650
1!
1%
b10000000 (
#2660
0!
0%
#2670
1!
1%
b10000001 (
#2680
0!
0%
#2690
1!
1%
b10000010 (
#2700
0!
0%
#2710
1!
1%
b10000011 (
#2720
0!
0%
#2730
1!
1%
b10000100 (
#2740
0!
0%
#2750
1!
1%
b10000101 (
#2760
0!
0%
#2770
1!
1%
b10000110 (
#2780
0!
0%
#2790
1!
1%
b10000111 (
#2800
0!
0%
#2810
1!
1%
b10001000 (
#2820
0!
0%
#2830
1!
1%
b10001001 (
#2840
0!
0%
#2850
1!
1%
b10001010 (
#2860
0!
0%
#2870
1!
1%
b10001011 (
#2880
0!
0%
#2890
1!
1%
b10001100 (
#2900
0!
0%
#2910
1!
1%
b10001101 (
#2920
0!
0%
#2930
1!
1%
b10001110 (
#2940
0!
0%
#2950
1!
1%
b10001111 (
#2960
0!
0%
#2970
1!
1%
b10010000 (
#2980
0!
0%
#2990
1!
1%
b10010001 (
#3000
0!
0%
#3010
1!
1%
b10010010 (
#3020
0!
0%
#3030
1!
1%
b10010011 (
#3040
0!
0%
#3050
1!
1%
b10010100 (
#3060
0!
0%
#3070
1!
1%
b10010101 (
#3080
0!
0%
#3090
1!
1%
b10010110 (
#3100
0!
0%
#3110
1!
1%
b10010111 (
#3120
0!
0%
#3130
1!
1%
b10011000 (
#3140
0!
0%
#3150
1!
1%
b10011001 (
#3160
0!
0%
#3170
1!
1%
b10011010 (
#3180
0!
0%
#3190
1!
1%
b10011011 (
#3200
0!
0%
#3210
1!
1%
b10011100 (
#3220
0!
0%
#3230
1!
1%
b10011101 (
#3240
0!
0%
#3250
1!
1%
b10011110 (
#3260
0!
0%
#3270
1!
1%
b10011111 (
#3280
0!
0%
#3290
1!
1%
b10100000 (
#3300
0!
0%
#3310
1!
1%
b10100001 (
#3320
0!
0%
#3330
1!
1%
b10100010 (
#3340
0!
0%
#3350
1!
1%
b10100011 (
#3360
0!
0%
#3370
1!
1%
b10100100 (
#3380
0!
0%
#3390
1!
1%
b10100101 (
#3400
0!
0%
#3410
1!
1%
b10100110 (
#3420
0!
0%
#3430
1!
1%
b10100111 (
#3440
0!
0%
#3450
1!
1%
b10101000 (
#3460
0!
0%
#3470
1!
1%
b10101001 (
#3480
0!
0%
#3490
1!
1%
b10101010 (
#3500
0!
0%
#3510
1!
1%
b10101011 (
#3520
0!
0%
#3530
1!
1%
b10101100 (
#3540
0!
0%
#3550
1!
1%
b10101101 (
#3560
0!
0%
#3570
1!
1%
b10101110 (
#3580
0!
0%
#3590
1!
1%
b10101111 (
#3600
0!
0%
#3610
1!
1%
b10110000 (
#3620
0!
0%
#3630
1!
1%
b10110001 (
#3640
0!
0%
#3650
1!
1%
b10110010 (
#3660
0!
0%
#3670
1!
1%
b10110011 (
#3680
0!
0%
#3690
1!
1%
b10110100 (
#3700
0!
0%
#3710
1!
1%
b10110101 (
#3720
0!
0%
#3730
1!
1%
b10110110 (
#3740
0!
0%
#3750
1!
1%
b10110111 (
#3760
0!
0%
#3770
1!
1%
b10111000 (
#3780
0!
0%
#3790
1!
1%
b10111001 (
#3800
0!
0%
#3810
1!
1%
b10111010 (
#3820
0!
0%
#3830
1!
1%
b10111011 (
#3840
0!
0%
#3850
1!
1%
b10111100 (
#3860
0!
0%
#3870
1!
1%
b10111101 (
#3880
0!
0%
#3890
1!
1%
b10111110 (
#3900
0!
0%
#3910
1!
1%
b10111111 (
#3920
0!
0%
#3930
1!
1%
b11000000 (
#3940
0!
0%
#3950
1!
1%
b11000001 (
#3960
0!
0%
#3970
1!
1%
b11000010 (
#3980
0!
0%
#3990
1!
1%
b11000011 (
#4000
0!
0%
#4010
1!
1%
b11000100 (
#4020
0!
0%
#4030
1!
1%
b11000101 (
#4040
0!
0%
#4050
1!
1%
b11000110 (
#4060
0!
0%
#4070
1!
1%
b11000111 (
#4080
0!
0%
#4090
1!
1%
b11001000 (
#4100
0!
0%
#4110
1!
1%
b11001001 (
#4120
0!
0%
#4130
1!
1%
b11001010 (
#4140
0!
0%
#4150
1!
1%
b11001011 (
#4160
0!
0%
#4170
1!
1%
b11001100 (
#4180
0!
0%
#4190
1!
1%
b11001101 (
#4200
0!
0%
#4210
1!
1%
b11001110 (
#4220
0!
0%
#4230
1!
1%
b11001111 (
#4240
0!
0%
#4250
1!
1%
b11010000 (
#4260
0!
0%
#4270
1!
1%
b11010001 (
#4280
0!
0%
#4290
1!
1%
b11010010 (
#4300
0!
0%
#4310
1!
1%
b11010011 (
#4320
0!
0%
#4330
1!
1%
b11010100 (
#4340
0!
0%
#4350
1!
1%
b11010101 (
#4360
0!
0%
#4370
1!
1%
b11010110 (
#4380
0!
0%
#4390
1!
1%
b11010111 (
#4400
0!
0%
#4410
1!
1%
b11011000 (
#4420
0!
0%
#4430
1!
1%
b11011001 (
#4440
0!
0%
#4450
1!
1%
b11011010 (
#4460
0!
0%
#4470
1!
1%
b11011011 (
#4480
0!
0%
#4490
1!
1%
b11011100 (
#4500
0!
0%
#4510
1!
1%
b11011101 (
#4520
0!
0%
#4530
1!
1%
b11011110 (
#4540
0!
0%
#4550
1!
1%
b11011111 (
#4560
0!
0%
#4570
1!
1%
b11100000 (
#4580
0!
0%
#4590
1!
1%
b11100001 (
#4600
0!
0%
#4610
1!
1%
b11100010 (
#4620
0!
0%
#4630
1!
1%
b11100011 (
#4640
0!
0%
#4650
1!
1%
b11100100 (
#4660
0!
0%
#4670
1!
1%
b11100101 (
#4680
0!
0%
#4690
1!
1%
b11100110 (
#4700
0!
0%
#4710
1!
1%
b11100111 (
#4720
0!
0%
#4730
1!
1%
b11101000 (
#4740
0!
0%
#4750
1!
1%
b11101001 (
#4760
0!
0%
#4770
1!
1%
b11101010 (
#4780
0!
0%
#4790
1!
1%
b11101011 (
#4800
0!
0%
#4810
1!
1%
b11101100 (
#4820
0!
0%
#4830
1!
1%
b11101101 (
#4840
0!
0%
#4850
1!
1%
b11101110 (
#4860
0!
0%
#4870
1!
1%
b11101111 (
#4880
0!
0%
#4890
1!
1%
b11110000 (
#4900
0!
0%
#4910
1!
1%
b11110001 (
#4920
0!
0%
#4930
1!
1%
b11110010 (
#4940
0!
0%
#4950
1!
1%
b11110011 (
#4960
0!
0%
#4970
1!
1%
b11110100 (
#4980
0!
0%
#4990
1!
1%
b11110101 (
#5000
0!
0%
#5010
1!
1%
b11110110 (
#5020
0!
0%
#5030
1!
1%
b11110111 (
#5040
0!
0%
#5050
1!
1%
b11111000 (
#5060
0!
0%
#5070
1!
1%
b11111001 (
#5080
0!
0%
#5090
1!
1%
b11111010 (
#5100
0!
0%
#5110
1!
1%
b11111011 (
#5120
0!
0%
#5130
1!
1%
b11111100 (
#5140
0!
0%
#5150
1!
1%
b11111101 (
#5160
0!
0%
#5170
1!
1%
b11111110 (
#5180
0!
0%
#5190
1!
1%
b11111111 (
#5200
0!
0%
#5210
1!
1%
b100000000 (
#5220
0!
0%
#5230
1!
1%
b100000001 (
#5240
0!
0%
#5250
1!
1%
b100000010 (
#5260
0!
0%
#5270
1!
1%
b100000011 (
#5280
0!
0%
#5290
1!
1%
b100000100 (
#5300
0!
0%
#5310
1!
1%
b100000101 (
#5320
0!
0%
#5330
1!
1%
b100000110 (
#5340
0!
0%
#5350
1!
1%
b100000111 (
#5360
0!
0%
#5370
1!
1%
b100001000 (
#5380
0!
0%
#5390
1!
1%
b100001001 (
#5400
0!
0%
#5410
1!
1%
b100001010 (
#5420
0!
0%
#5430
1!
1%
b100001011 (
#5440
0!
0%
#5450
1!
1%
b100001100 (
#5460
0!
0%
#5470
1!
1%
b100001101 (
#5480
0!
0%
#5490
1!
1%
b100001110 (
#5500
0!
0%
#5510
1!
1%
b100001111 (
#5520
0!
0%
#5530
1!
1%
b100010000 (
#5540
0!
0%
#5550
1!
1%
b100010001 (
#5560
0!
0%
#5570
1!
1%
b100010010 (
#5580
0!
0%
#5590
1!
1%
b100010011 (
#5600
0!
0%
#5610
1!
1%
b100010100 (
#5620
0!
0%
#5630
1!
1%
b100010101 (
#5640
0!
0%
#5650
1!
1%
b100010110 (
#5660
0!
0%
#5670
1!
1%
b100010111 (
#5680
0!
0%
#5690
1!
1%
b100011000 (
#5700
0!
0%
#5710
1!
1%
b100011001 (
#5720
0!
0%
#5730
1!
1%
b100011010 (
#5740
0!
0%
#5750
1!
1%
b100011011 (
#5760
0!
0%
#5770
1!
1%
b100011100 (
#5780
0!
0%
#5790
1!
1%
b100011101 (
#5800
0!
0%
#5810
1!
1%
b100011110 (
#5820
0!
0%
#5830
1!
1%
b100011111 (
#5840
0!
0%
#5850
1!
1%
b100100000 (
#5860
0!
0%
#5870
1!
1%
b100100001 (
#5880
0!
0%
#5890
1!
1%
b100100010 (
#5900
0!
0%
#5910
1!
1%
b100100011 (
#5920
0!
0%
#5930
1!
1%
b100100100 (
#5940
0!
0%
#5950
1!
1%
b100100101 (
#5960
0!
0%
#5970
1!
1%
b100100110 (
#5980
0!
0%
#5990
1!
1%
b100100111 (
#6000
0!
0%
#6010
1!
1%
b100101000 (
#6020
0!
0%
#6030
1!
1%
b100101001 (
#6040
0!
0%
#6050
1!
1%
b100101010 (
#6060
0!
0%
#6070
1!
1%
b100101011 (
#6080
0!
0%
#6090
1!
1%
b100101100 (
#6100
0!
0%
#6110
1!
1%
b100101101 (
#6120
0!
0%
#6130
1!
1%
b100101110 (
#6140
0!
0%
#6150
1!
1%
b100101111 (
#6160
0!
0%
#6170
1!
1%
b100110000 (
#6180
0!
0%
#6190
1!
1%
b100110001 (
#6200
0!
0%
#6210
1!
1%
b100110010 (
#6220
0!
0%
#6230
1!
1%
b100110011 (
#6240
0!
0%
#6250
1!
1%
b100110100 (
#6260
0!
0%
#6270
1!
1%
b100110101 (
#6280
0!
0%
#6290
1!
1%
b100110110 (
#6300
0!
0%
#6310
1!
1%
b100110111 (
#6320
0!
0%
#6330
1!
1%
b100111000 (
#6340
0!
0%
#6350
1!
1%
b100111001 (
#6360
0!
0%
#6370
1!
1%
b100111010 (
#6380
0!
0%
#6390
1!
1%
b100111011 (
#6400
0!
0%
#6410
1!
1%
b100111100 (
#6420
0!
0%
#6430
1!
1%
b100111101 (
#6440
0!
0%
#6450
1!
1%
b100111110 (
#6460
0!
0%
#6470
1!
1%
b100111111 (
#6480
0!
0%
#6490
1!
1%
b101000000 (
#6500
0!
0%
#6510
1!
1%
b101000001 (
#6520
0!
0%
#6530
1!
1%
b101000010 (
#6540
0!
0%
#6550
1!
1%
b101000011 (
#6560
0!
0%
#6570
1!
1%
b101000100 (
#6580
0!
0%
#6590
1!
1%
b101000101 (
#6600
0!
0%
#6610
1!
1%
b101000110 (
#6620
0!
0%
#6630
1!
1%
b101000111 (
#6640
0!
0%
#6650
1!
1%
b101001000 (
#6660
0!
0%
#6670
1!
1%
b101001001 (
#6680
0!
0%
#6690
1!
1%
b101001010 (
#6700
0!
0%
#6710
1!
1%
b101001011 (
#6720
0!
0%
#6730
1!
1%
b101001100 (
#6740
0!
0%
#6750
1!
1%
b101001101 (
#6760
0!
0%
#6770
1!
1%
b101001110 (
#6780
0!
0%
#6790
1!
1%
b101001111 (
#6800
0!
0%
#6810
1!
1%
b101010000 (
#6820
0!
0%
#6830
1!
1%
b101010001 (
#6840
0!
0%
#6850
1!
1%
b101010010 (
#6860
0!
0%
#6870
1!
1%
b101010011 (
#6880
0!
0%
#6890
1!
1%
b101010100 (
#6900
0!
0%
#6910
1!
1%
b101010101 (
#6920
0!
0%
#6930
1!
1%
b101010110 (
#6940
0!
0%
#6950
1!
1%
b101010111 (
#6960
0!
0%
#6970
1!
1%
b101011000 (
#6980
0!
0%
#6990
1!
1%
b101011001 (
#7000
0!
0%
#7010
1!
1%
b101011010 (
#7020
0!
0%
#7030
1!
1%
b101011011 (
#7040
0!
0%
#7050
1!
1%
b101011100 (
#7060
0!
0%
#7070
1!
1%
b101011101 (
#7080
0!
0%
#7090
1!
1%
b101011110 (
#7100
0!
0%
#7110
1!
1%
b101011111 (
#7120
0!
0%
#7130
1!
1%
b101100000 (
#7140
0!
0%
#7150
1!
1%
b101100001 (
#7160
0!
0%
#7170
1!
1%
b101100010 (
#7180
0!
0%
#7190
1!
1%
b101100011 (
#7200
0!
0%
#7210
1!
1%
b101100100 (
#7220
0!
0%
#7230
1!
1%
b101100101 (
#7240
0!
0%
#7250
1!
1%
b101100110 (
#7260
0!
0%
#7270
1!
1%
b101100111 (
#7280
0!
0%
#7290
1!
1%
b101101000 (
#7300
0!
0%
#7310
1!
1%
b101101001 (
#7320
0!
0%
#7330
1!
1%
b101101010 (
#7340
0!
0%
#7350
1!
1%
b101101011 (
#7360
0!
0%
#7370
1!
1%
b101101100 (
#7380
0!
0%
#7390
1!
1%
b101101101 (
#7400
0!
0%
#7410
1!
1%
b101101110 (
#7420
0!
0%
#7430
1!
1%
b101101111 (
#7440
0!
0%
#7450
1!
1%
b101110000 (
#7460
0!
0%
#7470
1!
1%
b101110001 (
#7480
0!
0%
#7490
1!
1%
b101110010 (
#7500
0!
0%
#7510
1!
1%
b101110011 (
#7520
0!
0%
#7530
1!
1%
b101110100 (
#7540
0!
0%
#7550
1!
1%
b101110101 (
#7560
0!
0%
#7570
1!
1%
b101110110 (
#7580
0!
0%
#7590
1!
1%
b101110111 (
#7600
0!
0%
#7610
1!
1%
b101111000 (
#7620
0!
0%
#7630
1!
1%
b101111001 (
#7640
0!
0%
#7650
1!
1%
b101111010 (
#7660
0!
0%
#7670
1!
1%
b101111011 (
#7680
0!
0%
#7690
1!
1%
b101111100 (
#7700
0!
0%
#7710
1!
1%
b101111101 (
#7720
0!
0%
#7730
1!
1%
b101111110 (
#7740
0!
0%
#7750
1!
1%
b101111111 (
#7760
0!
0%
#7770
1!
1%
b110000000 (
#7780
0!
0%
#7790
1!
1%
b110000001 (
#7800
0!
0%
#7810
1!
1%
b110000010 (
#7820
0!
0%
#7830
1!
1%
b110000011 (
#7840
0!
0%
#7850
1!
1%
b110000100 (
#7860
0!
0%
#7870
1!
1%
b110000101 (
#7880
0!
0%
#7890
1!
1%
b110000110 (
#7900
0!
0%
#7910
1!
1%
b110000111 (
#7920
0!
0%
#7930
1!
1%
b110001000 (
#7940
0!
0%
#7950
1!
1%
b110001001 (
#7960
0!
0%
#7970
1!
1%
b110001010 (
#7980
0!
0%
#7990
1!
1%
b110001011 (
#8000
0!
0%
#8010
1!
1%
b110001100 (
#8020
0!
0%
#8030
1!
1%
b110001101 (
#8040
0!
0%
#8050
1!
1%
b110001110 (
#8060
0!
0%
#8070
1!
1%
b110001111 (
#8080
0!
0%
#8090
1!
1%
b110010000 (
#8100
0!
0%
#8110
1!
1%
b110010001 (
#8120
0!
0%
#8130
1!
1%
b110010010 (
#8140
0!
0%
#8150
1!
1%
b110010011 (
#8160
0!
0%
#8170
1!
1%
b110010100 (
#8180
0!
0%
#8190
1!
1%
b110010101 (
#8200
0!
0%
#8210
1!
1%
b110010110 (
#8220
0!
0%
#8230
1!
1%
b110010111 (
#8240
0!
0%
#8250
1!
1%
b110011000 (
#8260
0!
0%
#8270
1!
1%
b110011001 (
#8280
0!
0%
#8290
1!
1%
b110011010 (
#8300
0!
0%
#8310
1!
1%
b110011011 (
#8320
0!
0%
#8330
1!
1%
b110011100 (
#8340
0!
0%
#8350
1!
1%
b110011101 (
#8360
0!
0%
#8370
1!
1%
b110011110 (
#8380
0!
0%
#8390
1!
1%
b110011111 (
#8400
0!
0%
#8410
1!
1%
b110100000 (
#8420
0!
0%
#8430
1!
1%
b110100001 (
#8440
0!
0%
#8450
1!
1%
b110100010 (
#8460
0!
0%
#8470
1!
1%
b110100011 (
#8480
0!
0%
#8490
1!
1%
b110100100 (
#8500
0!
0%
#8510
1!
1%
b110100101 (
#8520
0!
0%
#8530
1!
1%
b110100110 (
#8540
0!
0%
#8550
1!
1%
b110100111 (
#8560
0!
0%
#8570
1!
1%
b110101000 (
#8580
0!
0%
#8590
1!
1%
b110101001 (
#8600
0!
0%
#8610
1!
1%
b110101010 (
#8620
0!
0%
#8630
1!
1%
b110101011 (
#8640
0!
0%
#8650
1!
1%
b110101100 (
#8660
0!
0%
#8670
1!
1%
b110101101 (
#8680
0!
0%
#8690
1!
1%
b110101110 (
#8700
0!
0%
#8710
1!
1%
b110101111 (
#8720
0!
0%
#8730
1!
1%
b110110000 (
#8740
0!
0%
#8750
1!
1%
b110110001 (
#8760
0!
0%
#8770
1!
1%
b110110010 (
#8780
0!
0%
#8790
1!
1%
b110110011 (
#8800
0!
0%
#8810
1!
1%
b110110100 (
#8820
0!
0%
#8830
1!
1%
b110110101 (
#8840
0!
0%
#8850
1!
1%
b110110110 (
#8860
0!
0%
#8870
1!
1%
b110110111 (
#8880
0!
0%
#8890
1!
1%
b110111000 (
#8900
0!
0%
#8910
1!
1%
b110111001 (
#8920
0!
0%
#8930
1!
1%
b110111010 (
#8940
0!
0%
#8950
1!
1%
b110111011 (
#8960
0!
0%
#8970
1!
1%
b110111100 (
#8980
0!
0%
#8990
1!
1%
b110111101 (
#9000
0!
0%
#9010
1!
1%
b110111110 (
#9020
0!
0%
#9030
1!
1%
b110111111 (
#9040
0!
0%
#9050
1!
1%
b111000000 (
#9060
0!
0%
#9070
1!
1%
b111000001 (
#9080
0!
0%
#9090
1!
1%
b111000010 (
#9100
0!
0%
#9110
1!
1%
b111000011 (
#9120
0!
0%
#9130
1!
1%
b111000100 (
#9140
0!
0%
#9150
1!
1%
b111000101 (
#9160
0!
0%
#9170
1!
1%
b111000110 (
#9180
0!
0%
#9190
1!
1%
b111000111 (
#9200
0!
0%
#9210
1!
1%
b111001000 (
#9220
0!
0%
#9230
1!
1%
b111001001 (
#9240
0!
0%
#9250
1!
1%
b111001010 (
#9260
0!
0%
#9270
1!
1%
b111001011 (
#9280
0!
0%
#9290
1!
1%
b111001100 (
#9300
0!
0%
#9310
1!
1%
b111001101 (
#9320
0!
0%
#9330
1!
1%
b111001110 (
#9340
0!
0%
#9350
1!
1%
b111001111 (
#9360
0!
0%
#9370
1!
1%
b111010000 (
#9380
0!
0%
#9390
1!
1%
b111010001 (
#9400
0!
0%
#9410
1!
1%
b111010010 (
#9420
0!
0%
#9430
1!
1%
b111010011 (
#9440
0!
0%
#9450
1!
1%
b111010100 (
#9460
0!
0%
#9470
1!
1%
b111010101 (
#9480
0!
0%
#9490
1!
1%
b111010110 (
#9500
0!
0%
#9510
1!
1%
b111010111 (
#9520
0!
0%
#9530
1!
1%
b111011000 (
#9540
0!
0%
#9550
1!
1%
b111011001 (
#9560
0!
0%
#9570
1!
1%
b111011010 (
#9580
0!
0%
#9590
1!
1%
b111011011 (
#9600
0!
0%
#9610
1!
1%
b111011100 (
#9620
0!
0%
#9630
1!
1%
b111011101 (
#9640
0!
0%
#9650
1!
1%
b111011110 (
#9660
0!
0%
#9670
1!
1%
b111011111 (
#9680
0!
0%
#9690
1!
1%
b111100000 (
#9700
0!
0%
#9710
1!
1%
b111100001 (
#9720
0!
0%
#9730
1!
1%
b111100010 (
#9740
0!
0%
#9750
1!
1%
b111100011 (
#9760
0!
0%
#9770
1!
1%
b111100100 (
#9780
0!
0%
#9790
1!
1%
b111100101 (
#9800
0!
0%
#9810
1!
1%
b111100110 (
#9820
0!
0%
#9830
1!
1%
b111100111 (
#9840
0!
0%
#9850
1!
1%
b111101000 (
#9860
0!
0%
#9870
1!
1%
b111101001 (
#9880
0!
0%
#9890
1!
1%
b111101010 (
#9900
0!
0%
#9910
1!
1%
b111101011 (
#9920
0!
0%
#9930
1!
1%
b111101100 (
#9940
0!
0%
#9950
1!
1%
b111101101 (
#9960
0!
0%
#9970
1!
1%
b111101110 (
#9980
0!
0%
#9990
1!
1%
b111101111 (
#10000
0!
0%
#10010
1!
1%
b111110000 (
#10020
0!
0%
#10030
1!
1%
b111110001 (
#10040
0!
0%
#10050
1!
1%
b111110010 (
#10060
0!
0%
#10070
1!
1%
b111110011 (
#10080
0!
0%
#10090
1!
1%
b111110100 (
#10100
0!
0%
#10110
1!
1%
b111110101 (
#10120
0!
0%
#10130
1!
1%
b111110110 (
#10140
0!
0%
#10150
1!
1%
b111110111 (
#10160
0!
0%
#10170
1!
1%
b111111000 (
#10180
0!
0%
#10190
1!
1%
b111111001 (
#10200
0!
0%
#10210
1!
1%
b111111010 (
#10220
0!
0%
#10230
1!
1%
b111111011 (
#10240
0!
0%
#10250
1!
1%
b111111100 (
#10260
0!
0%
#10270
1!
1%
b111111101 (
#10280
0!
0%
#10290
1!
1%
b111111110 (
#10300
0!
0%
#10310
1!
1%
b111111111 (
#10320
0!
0%
#10330
1!
1%
b1000000000 (
#10340
0!
0%
#10350
1!
1%
b1000000001 (
#10360
0!
0%
#10370
1!
1%
b1000000010 (
#10380
0!
0%
#10390
1!
1%
b1000000011 (
#10400
0!
0%
#10410
1!
1%
b1000000100 (
#10420
0!
0%
#10430
1!
1%
b1000000101 (
#10440
0!
0%
#10450
1!
1%
b1000000110 (
#10460
0!
0%
#10470
1!
1%
b1000000111 (
#10480
0!
0%
#10490
1!
1%
b1000001000 (
#10500
0!
0%
#10510
1!
1%
b1000001001 (
#10520
0!
0%
#10530
1!
1%
b1000001010 (
#10540
0!
0%
#10550
1!
1%
b1000001011 (
#10560
0!
0%
#10570
1!
1%
b1000001100 (
#10580
0!
0%
#10590
1!
1%
b1000001101 (
#10600
0!
0%
#10610
1!
1%
b1000001110 (
#10620
0!
0%
#10630
1!
1%
b1000001111 (
#10640
0!
0%
#10650
1!
1%
b1000010000 (
#10660
0!
0%
#10670
1!
1%
b1000010001 (
#10680
0!
0%
#10690
1!
1%
b1000010010 (
#10700
0!
0%
#10710
1!
1%
b1000010011 (
#10720
0!
0%
#10730
1!
1%
b1000010100 (
#10740
0!
0%
#10750
1!
1%
b1000010101 (
#10760
0!
0%
#10770
1!
1%
b1000010110 (
#10780
0!
0%
#10790
1!
1%
b1000010111 (
#10800
0!
0%
#10810
1!
1%
b1000011000 (
#10820
0!
0%
#10830
1!
1%
b1000011001 (
#10840
0!
0%
#10850
1!
1%
b1000011010 (
#10860
0!
0%
#10870
1!
1%
b1000011011 (
#10880
0!
0%
#10890
1!
1%
b1000011100 (
#10900
0!
0%
#10910
1!
1%
b1000011101 (
#10920
0!
0%
#10930
1!
1%
b1000011110 (
#10940
0!
0%
#10950
1!
1%
b1000011111 (
#10960
0!
0%
#10970
1!
1%
b1000100000 (
#10980
0!
0%
#10990
1!
1%
b1000100001 (
